https://iea.uoregon.edu/treaty-text/1950-protectionbirdsentxt	International Convention for the Protection of Birds_1950-10-18
https://iea.uoregon.edu/treaty-text/1960-protectionworkersagainstionizingradiationsentxt	Convention (No. 115) concerning the Protection of Workers against Ionising Radiations_1960-06-22
https://iea.uoregon.edu/treaty-text/1962-liabilityoperatorsnuclearshipsentxt	Convention on the Liability of Operators of Nuclear Ships_1962-05-25
https://iea.uoregon.edu/treaty-text/1963-civilliabilitynucleardamageentxt	Vienna Convention on Civil Liability for Nuclear Damage_1963-05-21
https://iea.uoregon.edu/treaty-text/1968-roadtrafficentxt	Convention on Road Traffic, 1968_1968-11-08
https://iea.uoregon.edu/treaty-text/1973-pollutionfromshipsentxt	International Convention for the Prevention of Pollution from Ships, 1973_1973-11-02
https://iea.uoregon.edu/treaty-text/1995-concerningsafetyhealthminesentxt	Convention (No. 176) concerning Safety and Health in Mines_1995-06-22
https://iea.uoregon.edu/treaty-text/2001-antifoulingsystemsshipsentxt	International Convention on the Control of Harmful Anti-Fouling Systems on Ships_2001-10-05
https://iea.uoregon.edu/treaty-text/2001-safetyhealthagricultureentxt	Convention (No. 184) concerning Safety and Health in Agriculture_2001-06-21
https://iea.uoregon.edu/treaty-text/2007-wreckremovalentxt	Nairobi International Convention on the Removal of Wrecks_2007-05-18
https://iea.uoregon.edu/treaty-text/2009-internationalrenewableenergyagencyentxt	Statute of the International Renewable Energy Agency_2009-01-26
https://iea.uoregon.edu/treaty-text/2009-shiprecyclingentxt	International Convention for the Safe and Environmentally Sound Recycling of Ships_2009-05-15
https://iea.uoregon.edu/treaty-text/2010-protocol-1992-biologicaldiversityentxt	Nagoya Protocol on Access to Genetic Resources and the Fair and Equitable Sharing of Benefits Arising from their Utilization to the Convention on Biological Diversity_2010-10-29
https://iea.uoregon.edu/treaty-text/2010-protocol-2000-protocolbiosafety-1992-biologicaldiversityentxt	Nagoya - Kuala Lumpur Supplementary Protocol on Liability and Redress to the Cartagena Protocol on Biosafety_2010-10-15
https://iea.uoregon.edu/treaty-text/2013-mercuryentxt	Minamata Convention on Mercury_2013-10-10
https://iea.uoregon.edu/treaty-text/2015-paris-1992-climatechangeentxt	Paris Agreement_2015-12-12
https://iea.uoregon.edu/treaty-text/2017-nuclearweaponprohibitionentxt	Treaty on the Prohibition of Nuclear Weapons_2017-07-07
http://www.austlii.edu.au/au/other/dfat/seldoc/1971/1908.html	Convention relating to Civil Liability in the Field of Maritime Carriage of Nuclear Material_1971-12-17
http://www.austlii.edu.au/au/other/dfat/seldoc/1971/1910.html	Convention (No. 136) concerning Protection against Hazards of Poisoning Arising from Benzene_1971-06-23
http://www.austlii.edu.au/au/other/dfat/seldoc/1974/2307.html	Convention (No. 139) concerning Prevention and Control of Occupational Hazards Caused by Carcinogenic Substances and Agents_1974-06-24
http://www.austlii.edu.au/au/other/dfat/seldoc/1977/2516.html	Convention (No. 148) concerning the Protection of Workers against Occupational Hazards in the Working Environment Due to Air Pollution, Noise and Vibration_1977-06-20
http://www.austlii.edu.au/au/other/dfat/seldoc/1977/2521.html	International Convention for the Safety of Fishing Vessels, 1977_1977-04-02
http://www.austlii.edu.au/au/other/dfat/seldoc/1978/2604.html	United Nations Convention on the Carriage of Goods by Sea_1978-03-31
http://www.austlii.edu.au/au/other/dfat/seldoc/1979/2711.html	International Olive Oil Agreement, 1979_1979-03-30
http://www.austlii.edu.au/au/other/dfat/seldoc/1983/3116.html	Statutes of the International Centre for Genetic Engineering and Biotechnology_1983-09-13
http://www.austlii.edu.au/au/other/dfat/seldoc/1985/3303.html	Convention (No. 161) concerning Occupational Health Services_1985-06-26
http://www.austlii.edu.au/au/other/dfat/seldoc/1986/3402.html	Convention (No. 162) concerning Safety in the Use of Asbestos_1986-06-24
http://www.austlii.edu.au/au/other/dfat/seldoc/1988/3608.html	Convention (No. 167) concerning Safety and Health in Construction_1988-06-20
http://www.austlii.edu.au/au/other/dfat/seldoc/1989/3707.html	Convention (No. 169) concerning Indigenous and Tribal Peoples in Independent Countries_1989-06-27
http://www.austlii.edu.au/au/other/dfat/seldoc/1990/3804.html	Convention (No. 170) concerning Safety in the Use of Chemicals at Work_1990-06-25
http://www.austlii.edu.au/au/other/dfat/seldoc/1993/4106.html	Convention (No. 174) concerning the Prevention of Major Industrial Accidents_1993-06-22
http://www.austlii.edu.au/au/other/dfat/seldoc/1993/4107.html	International Cocoa Agreement, 1993_1993-07-16
http://www.austlii.edu.au/au/other/dfat/seldoc/1995/4312.html	International Convention on Standards of Training, Certification and Watchkeeping for Fishing Vessel Personnel_1995-07-07
http://www.austlii.edu.au/au/other/dfat/seldoc/1996/4409.html	International Convention on Liability and Compensation for Damage in Connection with the Carriage of Hazardous and Noxious Substances by Sea_1996-05-03
http://www.austlii.edu.au/au/other/dfat/seldoc/1996/4415.html	Comprehensive Nuclear-Test-Ban Treaty_1996-09-10
http://www.austlii.edu.au/au/other/dfat/seldoc/1997/4513.html	Convention on Supplementary Compensation for Nuclear Damage_1997-09-12
http://www.austlii.edu.au/au/other/dfat/seldoc/1999/4701.html	Convention on the Law of the Non-Navigational Uses of International Watercourses_1997-05-21
http://www.austlii.edu.au/au/other/dfat/seldoc/1999/4709.html	International Convention on Arrest of Ships_1999-03-12
http://www.austlii.edu.au/au/other/dfat/seldoc/1999/4730.html	Basel Protocol on Liability and Compensation for Damage Resulting from Transboundary Movements of Hazardous Wastes and their Disposal_1999-12-10
http://www.austlii.edu.au/au/other/dfat/treaties/ATNIF/2000/4.html	Cartagena Protocol on Biosafety to the Convention on Biological Diversity_2000-01-29
http://www.austlii.edu.au/au/other/dfat/treaties/ATS/1945/9.html	Constitution of the Food and Agriculture Organization of the United Nations_1945-10-16
http://www.austlii.edu.au/au/other/dfat/treaties/ATS/1946/9.html	Constitution of the United Nations Educational, Scientific and Cultural Organization_1945-11-16
http://www.austlii.edu.au/au/other/dfat/treaties/ATS/1948/18.html	International Convention for the Regulation of Whaling_1946-12-02
http://www.austlii.edu.au/au/other/dfat/treaties/ATS/1948/7.html	Constitution of the World Health Organization_1946-07-22
http://www.austlii.edu.au/au/other/dfat/treaties/ATS/1950/5.html	Convention of the World Meteorological Organization_1947-10-11
http://www.austlii.edu.au/au/other/dfat/treaties/ATS/1957/11.html	Statute of the International Atomic Energy Agency_1956-10-26
http://www.austlii.edu.au/au/other/dfat/treaties/ATS/1958/5.html	Convention on the International Maritime Organization_1948-03-06
http://www.austlii.edu.au/au/other/dfat/treaties/ATS/1963/26.html	Treaty Banning Nuclear Weapon Tests in the Atmosphere, in Outer Space and Under Water_1963-08-05
http://www.austlii.edu.au/au/other/dfat/treaties/ATS/1967/24.html	Treaty on Principles Governing the Activities of States in the Exploration and Use of Outer Space, including the Moon and Other Celestial Bodies_1967-01-27
http://www.austlii.edu.au/au/other/dfat/treaties/ATS/1970/19.html	Convention on the International Hydrographic Organisation_1967-05-03
http://www.austlii.edu.au/au/other/dfat/treaties/ATS/1973/3.html	Treaty on the Non-Proliferation of Nuclear Weapons_1968-07-01
http://www.austlii.edu.au/au/other/dfat/treaties/ATS/1973/4.html	Treaty on the Prohibition of the Emplacement of Nuclear Weapons and Other Weapons of Mass Destruction on the Sea-Bed and the Ocean Floor and in the Subsoil Thereof_1971-02-11
http://www.austlii.edu.au/au/other/dfat/treaties/ATS/1975/47.html	Convention for the Protection of the World Cultural and Natural Heritage_1972-11-16
http://www.austlii.edu.au/au/other/dfat/treaties/ATS/1975/48.html	Convention on Wetlands of International Importance Especially as Waterfowl Habitat_1971-02-02
http://www.austlii.edu.au/au/other/dfat/treaties/ATS/1975/5.html	Convention on the International Liability for Damage Caused by Space Objects_1972-03-29
http://www.austlii.edu.au/au/other/dfat/treaties/ATS/1976/29.html	Convention on International Trade in Endangered Species of Wild Fauna and Flora_1973-03-03
http://www.austlii.edu.au/au/other/dfat/treaties/ATS/1976/5.html	International Covenant on Economic, Social and Cultural Rights_1966-12-16
http://www.austlii.edu.au/au/other/dfat/treaties/ATS/1977/23.html	Convention on the Prohibition of the Development, Production and Stockpiling of Bacteriological (Biological) and Toxin Weapons and on their Destruction_1972-04-10
http://www.austlii.edu.au/au/other/dfat/treaties/ATS/1977/28.html	Agreement Establishing the International Fund for Agricultural Development_1976-06-13
http://www.austlii.edu.au/au/other/dfat/treaties/ATS/1983/17.html	International Coffee Agreement, 1983_1982-09-16
http://www.austlii.edu.au/au/other/dfat/treaties/ATS/1983/22.html	International Convention for the Safety of Life at Sea, 1974_1974-11-01
http://www.austlii.edu.au/au/other/dfat/treaties/ATS/1984/22.html	Convention on the Prohibition of Military or Any Other Hostile Use of Environmental Modification Techniques_1976-12-10
http://www.austlii.edu.au/au/other/dfat/treaties/ATS/1984/3.html	International Convention on Civil Liability for Oil Pollution Damage, 1969_1969-11-29
http://www.austlii.edu.au/au/other/dfat/treaties/ATS/1984/4.html	International Convention relating to Intervention on the High Seas in Cases of Oil Pollution Casualties_1969-11-29
http://www.austlii.edu.au/au/other/dfat/treaties/ATS/1984/6.html	Convention on Prohibitions or Restrictions on the Use of Certain Conventional Weapons Which May Be Deemed to Be Excessively Injurious or to Have Indiscriminate Effects_1980-10-10
http://www.austlii.edu.au/au/other/dfat/treaties/ATS/1984/7.html	International Convention on Standards of Training, Certification and Watchkeeping for Seafarers_1978-07-07
http://www.austlii.edu.au/au/other/dfat/treaties/ATS/1985/16.html	Convention on the Prevention of Marine Pollution by Dumping of Wastes and Other Matter, 1972_1972-12-29
http://www.austlii.edu.au/au/other/dfat/treaties/ATS/1986/12.html	Convention on Facilitation of International Maritime Traffic_1965-04-09
http://www.austlii.edu.au/au/other/dfat/treaties/ATS/1986/14.html	Agreement Governing the Activities of States on the Moon and Other Celestial Bodies_1979-12-05
http://www.austlii.edu.au/au/other/dfat/treaties/ATS/1986/5.html	Convention on Registration of Objects Launched into Outer Space_1974-11-12
http://www.austlii.edu.au/au/other/dfat/treaties/ATS/1986/8.html	Agreement on the Rescue of Astronauts, the Return of Astronauts and the Return of Objects Launched into Outer Space_1968-04-22
http://www.austlii.edu.au/au/other/dfat/treaties/ATS/1987/14.html	Convention on Early Notification of a Nuclear Accident_1986-09-26
http://www.austlii.edu.au/au/other/dfat/treaties/ATS/1987/15.html	Convention on Assistance in the Case of a Nuclear Accident or Radiological Emergency_1986-09-26
http://www.austlii.edu.au/au/other/dfat/treaties/ATS/1987/16.html	Convention on the Physical Protection of Nuclear Material_1980-03-03
http://www.austlii.edu.au/au/other/dfat/treaties/ATS/1987/9.html	Budapest Treaty on the International Recognition of the Deposit of Microorganisms for the Purposes of Patent Procedure_1977-04-28
http://www.austlii.edu.au/au/other/dfat/treaties/ATS/1988/26.html	Vienna Convention for the Protection of the Ozone Layer_1985-03-22
http://www.austlii.edu.au/au/other/dfat/treaties/ATS/1989/18.html	Montreal Protocol on Substances that Deplete the Ozone Layer_1987-09-16
http://www.austlii.edu.au/au/other/dfat/treaties/ATS/1991/29.html	Protocol Additional to the Geneva Conventions of 12 August 1949, and relating to the Protection of Victims of International Armed Conflicts (Protocol I)_1977-06-08
http://www.austlii.edu.au/au/other/dfat/treaties/ATS/1991/30.html	Protocol Additional to the Geneva Conventions of 12 August 1949, and relating to the Protection of Victims of Non-International Armed Conflicts (Protocol II)_1977-06-08
http://www.austlii.edu.au/au/other/dfat/treaties/ATS/1991/32.html	Convention on the Conservation of Migratory Species of Wild Animals_1979-06-23
http://www.austlii.edu.au/au/other/dfat/treaties/ATS/1991/4.html	Convention on the Rights of the Child_1989-11-20
http://www.austlii.edu.au/au/other/dfat/treaties/ATS/1992/7.html	Basel Convention on the Control of Transboundary Movements of Hazardous Wastes and their Disposal_1989-03-22
http://www.austlii.edu.au/au/other/dfat/treaties/ATS/1993/32.html	Convention on Biological Diversity_1992-06-05
http://www.austlii.edu.au/au/other/dfat/treaties/ATS/1993/8.html	International Sugar Agreement, 1992_1992-03-20
http://www.austlii.edu.au/au/other/dfat/treaties/ATS/1994/2.html	United Nations Framework Convention on Climate Change_1992-05-09
http://www.austlii.edu.au/au/other/dfat/treaties/ATS/1994/31.html	United Nations Convention on the Law of the Sea_1982-12-10
http://www.austlii.edu.au/au/other/dfat/treaties/ATS/1995/12.html	International Convention on Oil Pollution Preparedness, Response and Cooperation_1990-11-30
http://www.austlii.edu.au/au/other/dfat/treaties/ATS/1995/2.html	International Convention on the Establishment of an International Fund for Compensation for Oil Pollution Damage, 1971_1971-12-18
http://www.austlii.edu.au/au/other/dfat/treaties/ATS/1995/22.html	Grains Trade Convention, 1995_1994-12-07
http://www.austlii.edu.au/au/other/dfat/treaties/ATS/1995/8.html	Marrakesh Agreement Establishing the World Trade Organization_1994-04-15
http://www.austlii.edu.au/au/other/dfat/treaties/ATS/1997/3.html	Convention on the Prohibition of the Development, Production, Stockpiling and Use of Chemical Weapons and on their Destruction_1992-09-03
http://www.austlii.edu.au/au/other/dfat/treaties/ATS/1997/5.html	Convention on Nuclear Safety_1994-09-20
http://www.austlii.edu.au/au/other/dfat/treaties/ATS/1998/2.html	International Convention on Salvage_1989-04-28
http://www.austlii.edu.au/au/other/dfat/treaties/ATS/1999/3.html	Convention on the Prohibition of the Use, Stockpiling, Production and Transfer of Anti-Personnel Mines and on their Destruction_1997-09-18
http://www.austlii.edu.au/au/other/dfat/treaties/ATS/2000/18.html	United Nations Convention to Combat Desertification in those Countries Experiencing Serious Drought and/or Desertification, Particularly in Africa_1994-10-14
http://www.austlii.edu.au/au/other/dfat/treaties/ATS/2000/6.html	International Convention for the Protection of New Varieties of Plants_1991-03-19
http://www.austlii.edu.au/au/other/dfat/treaties/ATS/2001/8.html	Agreement for the Implementation of the Provisions of the United Nations Convention on the Law of the Sea of 10 December 1982 relating to the Conservation and Management of Straddling Fish Stocks and Highly Migratory Fish Stocks_1995-08-04
http://www.austlii.edu.au/au/other/dfat/treaties/ATS/2002/15.html	Rome Statute of the International Criminal Court_1998-07-17
http://www.austlii.edu.au/au/other/dfat/treaties/ATS/2002/17.html	International Convention for the Suppression of Terrorist Bombings_1997-12-15
http://www.austlii.edu.au/au/other/dfat/treaties/ATS/2003/21.html	Joint Convention on the Safety of Spent Fuel Management and on the Safety of Radioactive Waste Management_1997-09-05
http://www.austlii.edu.au/au/other/dfat/treaties/ATS/2004/22.html	Rotterdam Convention on the Prior Informed Consent Procedure for Certain Hazardous Chemicals and Pesticides in International Trade_1998-09-10
http://www.austlii.edu.au/au/other/dfat/treaties/ATS/2004/23.html	Stockholm Convention on Persistent Organic Pollutants_2001-05-22
http://www.austlii.edu.au/au/other/dfat/treaties/ATS/2004/26.html	Agreement to Promote Compliance with International Conservation and Management Measures by Fishing Vessels on the High Seas_1993-11-24
http://www.austlii.edu.au/au/other/dfat/treaties/ATS/2005/11.html	Convention (No. 155) concerning Occupational Safety and Health and the Working Environment_1981-06-22
http://www.austlii.edu.au/au/other/dfat/treaties/ATS/2005/23.html	International Plant Protection Convention, 1997_1997-11-17
http://www.austlii.edu.au/au/other/dfat/treaties/ATS/2005/7.html	WHO Framework Convention on Tobacco Control_2003-05-21
http://www.austlii.edu.au/au/other/dfat/treaties/ATS/2006/10.html	International Treaty on Plant Genetic Resources for Food and Agriculture_2001-11-03
http://www.austlii.edu.au/au/other/dfat/treaties/ATS/2006/11.html	1996 Protocol to the Convention on the Prevention of Marine Pollution by Dumping of Wastes and Other Matter_1996-11-07
http://www.austlii.edu.au/au/other/dfat/treaties/ATS/2006/15.html	Agreement for the Establishment of the Global Crop Diversity Trust_2003-10-04
http://www.austlii.edu.au/au/other/dfat/treaties/ATS/2007/29.html	International Health Regulations, 2005_2005-05-23
http://www.austlii.edu.au/au/other/dfat/treaties/ATS/2007/41.html	Protocol on Preparedness, Response and Cooperation to Pollution Incidents by Hazardous and Noxious Substances_2000-03-15
http://www.austlii.edu.au/au/other/dfat/treaties/ATS/2008/2.html	Kyoto Protocol to the United Nations Framework Convention on Climate Change_1997-12-11
http://www.austlii.edu.au/au/other/dfat/treaties/ATS/2009/14.html	International Convention on Civil Liability for Bunker Oil Pollution Damage_2001-03-23
http://www.austlii.edu.au/au/other/dfat/treaties/ATS/2011/44.html	International Tropical Timber Agreement, 2006_2006-01-27
http://www.austlii.edu.au/au/other/dfat/treaties/ATS/2012/13.html	International Convention for the Suppression of Acts of Nuclear Terrorism_2005-04-13
http://www.austlii.edu.au/au/other/dfat/treaties/ATS/2014/12.html	Food Assistance Convention_2012-04-25
http://www.austlii.edu.au/au/other/dfat/treaties/ATS/2014/34.html	Agreement on the Establishment of the Global Green Growth Institute_2012-06-20
http://www.austlii.edu.au/au/other/dfat/treaties/ATS/2016/21.html	Agreement on Port State Measures to Prevent, Deter and Eliminate Illegal, Unreported and Unregulated Fishing_2009-11-22
http://www.austlii.edu.au/au/other/dfat/treaties/ATS/2017/15.html	International Convention for the Control and Management of Ship's Ballast Water and Sediments_2004-02-13
https://treaties.un.org/Pages/showDetails.aspx?objid=08000002801270a6&clang=_en	International Convention for the Protection of Birds_1950-10-18
https://treaties.un.org/Pages/showDetails.aspx?objid=0800000280133edd&clang=_en	Convention (No. 115) concerning the Protection of Workers against Ionising Radiations_1960-06-22
https://treaties.un.org/Pages/showDetails.aspx?objid=08000002800fb0a7&clang=_en	Vienna Convention on Civil Liability for Nuclear Damage_1963-05-21
https://treaties.un.org/Pages/showDetails.aspx?objid=080000028003745e&clang=_en	Convention on Road Traffic, 1968_1968-11-08
https://treaties.un.org/Pages/showDetails.aspx?objid=080000028009eaef&clang=_en	Convention (No. 176) concerning Safety and Health in Mines_1995-06-22
https://treaties.un.org/Pages/showDetails.aspx?objid=080000028057e421&clang=_en	International Convention on the Control of Harmful Anti-Fouling Systems on Ships_2001-10-05
https://treaties.un.org/Pages/showDetails.aspx?objid=080000028007b187&clang=_en	Convention (No. 184) concerning Safety and Health in Agriculture_2001-06-21
https://treaties.un.org/Pages/showDetails.aspx?objid=080000028053c3a0&clang=_en	Nairobi International Convention on the Removal of Wrecks_2007-05-18
https://treaties.un.org/Pages/showDetails.aspx?objid=08000002802aefa2&clang=_en	Statute of the International Renewable Energy Agency_2009-01-26
https://treaties.un.org/Pages/showDetails.aspx?objid=08000002802b5335&clang=_en	Nagoya Protocol on Access to Genetic Resources and the Fair and Equitable Sharing of Benefits Arising from their Utilization to the Convention on Biological Diversity_2010-10-29
https://treaties.un.org/Pages/showDetails.aspx?objid=08000002802c1fae&clang=_en	Nagoya - Kuala Lumpur Supplementary Protocol on Liability and Redress to the Cartagena Protocol on Biosafety_2010-10-15
https://treaties.un.org/Pages/showDetails.aspx?objid=0800000280383b1d&clang=_en	Minamata Convention on Mercury_2013-10-10
https://treaties.un.org/Pages/showDetails.aspx?objid=0800000280458f37&clang=_en	Paris Agreement_2015-12-12
https://treaties.un.org/Pages/showDetails.aspx?objid=08000002804c2398&clang=_en	Treaty on the Prohibition of Nuclear Weapons_2017-07-07
https://treaties.un.org/Pages/showDetails.aspx?objid=0800000280107d4b&clang=_en	Convention relating to Civil Liability in the Field of Maritime Carriage of Nuclear Material_1971-12-17
https://treaties.un.org/Pages/showDetails.aspx?objid=0800000280110f5e&clang=_en	Convention (No. 136) concerning Protection against Hazards of Poisoning Arising from Benzene_1971-06-23
https://treaties.un.org/Pages/showDetails.aspx?objid=0800000280102256&clang=_en	Convention (No. 139) concerning Prevention and Control of Occupational Hazards Caused by Carcinogenic Substances and Agents_1974-06-24
https://treaties.un.org/Pages/showDetails.aspx?objid=08000002800fd93a&clang=_en	Convention (No. 148) concerning the Protection of Workers against Occupational Hazards in the Working Environment Due to Air Pollution, Noise and Vibration_1977-06-20
https://treaties.un.org/Pages/showDetails.aspx?objid=0800000280042179&clang=_en	United Nations Convention on the Carriage of Goods by Sea_1978-03-31
https://treaties.un.org/Pages/showDetails.aspx?objid=08000002800ebe56&clang=_en	International Olive Oil Agreement, 1979_1979-03-30
https://treaties.un.org/Pages/showDetails.aspx?objid=0800000280042b43&clang=_en	Statutes of the International Centre for Genetic Engineering and Biotechnology_1983-09-13
https://treaties.un.org/Pages/showDetails.aspx?objid=08000002800ca75b&clang=_en	Convention (No. 161) concerning Occupational Health Services_1985-06-26
https://treaties.un.org/Pages/showDetails.aspx?objid=08000002800c3e6e&clang=_en	Convention (No. 162) concerning Safety in the Use of Asbestos_1986-06-24
https://treaties.un.org/Pages/showDetails.aspx?objid=08000002800beeaf&clang=_en	Convention (No. 167) concerning Safety and Health in Construction_1988-06-20
https://treaties.un.org/Pages/showDetails.aspx?objid=08000002800c0136&clang=_en	Convention (No. 169) concerning Indigenous and Tribal Peoples in Independent Countries_1989-06-27
https://treaties.un.org/Pages/showDetails.aspx?objid=08000002800b2d28&clang=_en	Convention (No. 170) concerning Safety in the Use of Chemicals at Work_1990-06-25
https://treaties.un.org/Pages/showDetails.aspx?objid=08000002800a49ea&clang=_en	Convention (No. 174) concerning the Prevention of Major Industrial Accidents_1993-06-22
https://treaties.un.org/Pages/showDetails.aspx?objid=0800000280042f5a&clang=_en	International Cocoa Agreement, 1993_1993-07-16
https://treaties.un.org/Pages/showDetails.aspx?objid=080000028057dd97&clang=_en	International Convention on Standards of Training, Certification and Watchkeeping for Fishing Vessel Personnel_1995-07-07
https://treaties.un.org/Pages/showDetails.aspx?objid=0800000280049f7f&clang=_en	Comprehensive Nuclear-Test-Ban Treaty_1996-09-10
https://treaties.un.org/Pages/showDetails.aspx?objid=0800000280428790&clang=_en	Convention on Supplementary Compensation for Nuclear Damage_1997-09-12
https://treaties.un.org/Pages/showDetails.aspx?objid=0800000280025697&clang=_en	Convention on the Law of the Non-Navigational Uses of International Watercourses_1997-05-21
https://treaties.un.org/Pages/showDetails.aspx?objid=080000028004ce27&clang=_en	International Convention on Arrest of Ships_1999-03-12
https://treaties.un.org/Pages/showDetails.aspx?objid=0800000280015772&clang=_en	Basel Protocol on Liability and Compensation for Damage Resulting from Transboundary Movements of Hazardous Wastes and their Disposal_1999-12-10
https://treaties.un.org/Pages/showDetails.aspx?objid=080000028002935c&clang=_en	Cartagena Protocol on Biosafety to the Convention on Biological Diversity_2000-01-29
https://treaties.un.org/Pages/showDetails.aspx?objid=08000002801651f0&clang=_en	Constitution of the United Nations Educational, Scientific and Cultural Organization_1945-11-16
https://treaties.un.org/Pages/showDetails.aspx?objid=0800000280150135&clang=_en	International Convention for the Regulation of Whaling_1946-12-02
https://treaties.un.org/Pages/showDetails.aspx?objid=080000028002d899&clang=_en	Constitution of the World Health Organization_1946-07-22
https://treaties.un.org/Pages/showDetails.aspx?objid=0800000280157e8e&clang=_en	Convention of the World Meteorological Organization_1947-10-11
https://treaties.un.org/Pages/showDetails.aspx?objid=0800000280142abd&clang=_en	Statute of the International Atomic Energy Agency_1956-10-26
https://treaties.un.org/Pages/showDetails.aspx?objid=0800000280022758&clang=_en	Convention on the International Maritime Organization_1948-03-06
https://treaties.un.org/Pages/showDetails.aspx?objid=08000002801313d9&clang=_en	Treaty Banning Nuclear Weapon Tests in the Atmosphere, in Outer Space and Under Water_1963-08-05
https://treaties.un.org/Pages/showDetails.aspx?objid=0800000280128cbd&clang=_en	Treaty on Principles Governing the Activities of States in the Exploration and Use of Outer Space, including the Moon and Other Celestial Bodies_1967-01-27
https://treaties.un.org/Pages/showDetails.aspx?objid=080000028011f30b&clang=_en	Convention on the International Hydrographic Organisation_1967-05-03
https://treaties.un.org/Pages/showDetails.aspx?objid=08000002801d56c5&clang=_en	Treaty on the Non-Proliferation of Nuclear Weapons_1968-07-01
https://treaties.un.org/Pages/showDetails.aspx?objid=080000028010aa4c&clang=_en	Treaty on the Prohibition of the Emplacement of Nuclear Weapons and Other Weapons of Mass Destruction on the Sea-Bed and the Ocean Floor and in the Subsoil Thereof_1971-02-11
https://treaties.un.org/Pages/showDetails.aspx?objid=08000002800fece0&clang=_en	Convention for the Protection of the World Cultural and Natural Heritage_1972-11-16
https://treaties.un.org/Pages/showDetails.aspx?objid=0800000280104c20&clang=_en	Convention on Wetlands of International Importance Especially as Waterfowl Habitat_1971-02-02
https://treaties.un.org/Pages/showDetails.aspx?objid=08000002801098c7&clang=_en	Convention on the International Liability for Damage Caused by Space Objects_1972-03-29
https://treaties.un.org/Pages/showDetails.aspx?objid=0800000280105383&clang=_en	Convention on International Trade in Endangered Species of Wild Fauna and Flora_1973-03-03
https://treaties.un.org/Pages/showDetails.aspx?objid=080000028002b6ed&clang=_en	International Covenant on Economic, Social and Cultural Rights_1966-12-16
https://treaties.un.org/Pages/showDetails.aspx?objid=0800000280101653&clang=_en	Convention on the Prohibition of the Development, Production and Stockpiling of Bacteriological (Biological) and Toxin Weapons and on their Destruction_1972-04-10
https://treaties.un.org/Pages/showDetails.aspx?objid=0800000280037807&clang=_en	Agreement Establishing the International Fund for Agricultural Development_1976-06-13
https://treaties.un.org/Pages/showDetails.aspx?objid=080000028003970d&clang=_en	International Coffee Agreement, 1983_1982-09-16
https://treaties.un.org/Pages/showDetails.aspx?objid=08000002800ec37f&clang=_en	International Convention for the Safety of Life at Sea, 1974_1974-11-01
https://treaties.un.org/Pages/showDetails.aspx?objid=08000002800385c9&clang=_en	Convention on the Prohibition of Military or Any Other Hostile Use of Environmental Modification Techniques_1976-12-10
https://treaties.un.org/Pages/showDetails.aspx?objid=08000002801083db&clang=_en	International Convention on Civil Liability for Oil Pollution Damage, 1969_1969-11-29
https://treaties.un.org/Pages/showDetails.aspx?objid=08000002801089a9&clang=_en	International Convention relating to Intervention on the High Seas in Cases of Oil Pollution Casualties_1969-11-29
https://treaties.un.org/Pages/showDetails.aspx?objid=080000028003a6cf&clang=_en	Convention on Prohibitions or Restrictions on the Use of Certain Conventional Weapons Which May Be Deemed to Be Excessively Injurious or to Have Indiscriminate Effects_1980-10-10
https://treaties.un.org/Pages/showDetails.aspx?objid=08000002800d6d42&clang=_en	International Convention on Standards of Training, Certification and Watchkeeping for Seafarers_1978-07-07
https://treaties.un.org/Pages/showDetails.aspx?objid=08000002800fdd18&clang=_en	Convention on the Prevention of Marine Pollution by Dumping of Wastes and Other Matter, 1972_1972-12-29
https://treaties.un.org/Pages/showDetails.aspx?objid=0800000280129d04&clang=_en	Convention on Facilitation of International Maritime Traffic_1965-04-09
https://treaties.un.org/Pages/showDetails.aspx?objid=080000028003b946&clang=_en	Agreement Governing the Activities of States on the Moon and Other Celestial Bodies_1979-12-05
https://treaties.un.org/Pages/showDetails.aspx?objid=08000002800361b4&clang=_en	Convention on Registration of Objects Launched into Outer Space_1974-11-12
https://treaties.un.org/Pages/showDetails.aspx?objid=080000028012504f&clang=_en	Agreement on the Rescue of Astronauts, the Return of Astronauts and the Return of Objects Launched into Outer Space_1968-04-22
https://treaties.un.org/Pages/showDetails.aspx?objid=08000002800cf3c9&clang=_en	Convention on Early Notification of a Nuclear Accident_1986-09-26
https://treaties.un.org/Pages/showDetails.aspx?objid=08000002800cf807&clang=_en	Convention on Assistance in the Case of a Nuclear Accident or Radiological Emergency_1986-09-26
https://treaties.un.org/Pages/showDetails.aspx?objid=08000002800d6024&clang=_en	Convention on the Physical Protection of Nuclear Material_1980-03-03
https://treaties.un.org/Pages/showDetails.aspx?objid=08000002800f89cd&clang=_en	Budapest Treaty on the International Recognition of the Deposit of Microorganisms for the Purposes of Patent Procedure_1977-04-28
https://treaties.un.org/Pages/showDetails.aspx?objid=080000028003f101&clang=_en	Vienna Convention for the Protection of the Ozone Layer_1985-03-22
https://treaties.un.org/Pages/showDetails.aspx?objid=080000028003f7f7&clang=_en	Montreal Protocol on Substances that Deplete the Ozone Layer_1987-09-16
https://treaties.un.org/Pages/showDetails.aspx?objid=08000002800f3586&clang=_en	Protocol Additional to the Geneva Conventions of 12 August 1949, and relating to the Protection of Victims of International Armed Conflicts (Protocol I)_1977-06-08
https://treaties.un.org/Pages/showDetails.aspx?objid=08000002800f3cb8&clang=_en	Protocol Additional to the Geneva Conventions of 12 August 1949, and relating to the Protection of Victims of Non-International Armed Conflicts (Protocol II)_1977-06-08
https://treaties.un.org/Pages/showDetails.aspx?objid=08000002800bc2fb&clang=_en	Convention on the Conservation of Migratory Species of Wild Animals_1979-06-23
https://treaties.un.org/Pages/showDetails.aspx?objid=08000002800007fe&clang=_en	Convention on the Rights of the Child_1989-11-20
https://treaties.un.org/Pages/showDetails.aspx?objid=08000002800156c2&clang=_en	Basel Convention on the Control of Transboundary Movements of Hazardous Wastes and their Disposal_1989-03-22
https://treaties.un.org/Pages/showDetails.aspx?objid=080000028002934a&clang=_en	Convention on Biological Diversity_1992-06-05
https://treaties.un.org/Pages/showDetails.aspx?objid=080000028004230f&clang=_en	International Sugar Agreement, 1992_1992-03-20
https://treaties.un.org/Pages/showDetails.aspx?objid=08000002800431ce&clang=_en	United Nations Framework Convention on Climate Change_1992-05-09
https://treaties.un.org/Pages/showDetails.aspx?objid=0800000280043ad5&clang=_en	United Nations Convention on the Law of the Sea_1982-12-10
https://treaties.un.org/Pages/showDetails.aspx?objid=08000002800aada6&clang=_en	International Convention on Oil Pollution Preparedness, Response and Cooperation_1990-11-30
https://treaties.un.org/Pages/showDetails.aspx?objid=08000002800f5af6&clang=_en	International Convention on the Establishment of an International Fund for Compensation for Oil Pollution Damage, 1971_1971-12-18
https://treaties.un.org/Pages/showDetails.aspx?objid=0800000280029179&clang=_en	Grains Trade Convention, 1995_1994-12-07
https://treaties.un.org/Pages/showDetails.aspx?objid=08000002800ade6c&clang=_en	Marrakesh Agreement Establishing the World Trade Organization_1994-04-15
https://treaties.un.org/Pages/showDetails.aspx?objid=08000002800276fe&clang=_en	Convention on the Prohibition of the Development, Production, Stockpiling and Use of Chemical Weapons and on their Destruction_1992-09-03
https://treaties.un.org/Pages/showDetails.aspx?objid=08000002800a52b4&clang=_en	Convention on Nuclear Safety_1994-09-20
https://treaties.un.org/Pages/showDetails.aspx?objid=08000002800a58b3&clang=_en	International Convention on Salvage_1989-04-28
https://treaties.un.org/Pages/showDetails.aspx?objid=0800000280006d60&clang=_en	Convention on the Prohibition of the Use, Stockpiling, Production and Transfer of Anti-Personnel Mines and on their Destruction_1997-09-18
https://treaties.un.org/Pages/showDetails.aspx?objid=0800000280054a96&clang=_en	United Nations Convention to Combat Desertification in those Countries Experiencing Serious Drought and/or Desertification, Particularly in Africa_1994-10-14
https://treaties.un.org/Pages/showDetails.aspx?objid=080000028004b51e&clang=_en	Agreement for the Implementation of the Provisions of the United Nations Convention on the Law of the Sea of 10 December 1982 relating to the Conservation and Management of Straddling Fish Stocks and Highly Migratory Fish Stocks_1995-08-04
https://treaties.un.org/Pages/showDetails.aspx?objid=0800000280025774&clang=_en	Rome Statute of the International Criminal Court_1998-07-17
https://treaties.un.org/Pages/showDetails.aspx?objid=0800000280048c82&clang=_en	International Convention for the Suppression of Terrorist Bombings_1997-12-15
https://treaties.un.org/Pages/showDetails.aspx?objid=0800000280088ea3&clang=_en	Joint Convention on the Safety of Spent Fuel Management and on the Safety of Radioactive Waste Management_1997-09-05
https://treaties.un.org/Pages/showDetails.aspx?objid=0800000280026659&clang=_en	Rotterdam Convention on the Prior Informed Consent Procedure for Certain Hazardous Chemicals and Pesticides in International Trade_1998-09-10
https://treaties.un.org/Pages/showDetails.aspx?objid=08000002800536cc&clang=_en	Stockholm Convention on Persistent Organic Pollutants_2001-05-22
https://treaties.un.org/Pages/showDetails.aspx?objid=080000028007be1a&clang=_en	Agreement to Promote Compliance with International Conservation and Management Measures by Fishing Vessels on the High Seas_1993-11-24
https://treaties.un.org/Pages/showDetails.aspx?objid=08000002800dbe0a&clang=_en	Convention (No. 155) concerning Occupational Safety and Health and the Working Environment_1981-06-22
https://treaties.un.org/Pages/showDetails.aspx?objid=0800000280066b19&clang=_en	International Plant Protection Convention, 1997_1997-11-17
https://treaties.un.org/Pages/showDetails.aspx?objid=0800000280055410&clang=_en	WHO Framework Convention on Tobacco Control_2003-05-21
https://treaties.un.org/Pages/showDetails.aspx?objid=080000028006554e&clang=_en	International Treaty on Plant Genetic Resources for Food and Agriculture_2001-11-03
https://treaties.un.org/Pages/showDetails.aspx?objid=0800000280066e47&clang=_en	Agreement for the Establishment of the Global Crop Diversity Trust_2003-10-04
https://treaties.un.org/Pages/showDetails.aspx?objid=08000002801d31cc&clang=_en	International Health Regulations, 2005_2005-05-23
https://treaties.un.org/Pages/showDetails.aspx?objid=0800000280021a16&clang=_en	Kyoto Protocol to the United Nations Framework Convention on Climate Change_1997-12-11
https://treaties.un.org/Pages/showDetails.aspx?objid=08000002800581c5&clang=_en	International Tropical Timber Agreement, 2006_2006-01-27
https://treaties.un.org/Pages/showDetails.aspx?objid=0800000280057ab0&clang=_en	International Convention for the Suppression of Acts of Nuclear Terrorism_2005-04-13
https://treaties.un.org/Pages/showDetails.aspx?objid=080000028031a825&clang=_en	Food Assistance Convention_2012-04-25
https://treaties.un.org/Pages/showDetails.aspx?objid=080000028049aa1a&clang=_en	Agreement on Port State Measures to Prevent, Deter and Eliminate Illegal, Unreported and Unregulated Fishing_2009-11-22
https://treaties.un.org/Pages/showDetails.aspx?objid=080000028053b465&clang=_en	International Convention for the Control and Management of Ship's Ballast Water and Sediments_2004-02-13
